module goffline

go 1.23.2

require (
	github.com/codingsince1985/geo-golang v1.8.4
	github.com/gin-contrib/cors v1.7.2
	github.com/gin-gonic/gin v1.10.0
	github.com/golang-jwt/jwt/v5 v5.2.1
	github.com/jackc/pgx/v5 v5.7.1
	github.com/jinzhu/copier v0.4.0
	github.com/joho/godotenv v1.5.1
	github.com/muktihari/fit v0.24.3
	github.com/testcontainers/testcontainers-go v0.34.0
	github.com/testcontainers/testcontainers-go/modules/postgres v0.34.0
	gorm.io/driver/postgres v1.5.11
	gorm.io/gorm v1.25.12
)

require (
	dario.cat/mergo v1.0.0 // indirect
	github.com/Azure/go-ansiterm v0.0.0-20210617225240-d185dfc1b5a1 // indirect
	github.com/Microsoft/go-winio v0.6.2 // indirect
	github.com/bytedance/sonic v1.12.5 // indirect
	github.com/bytedance/sonic/loader v0.2.1 // indirect
	github.com/cenkalti/backoff/v4 v4.2.1 // indirect
	github.com/cloudwego/base64x v0.1.4 // indirect
	github.com/cloudwego/iasm v0.2.0 // indirect
	github.com/containerd/containerd v1.7.18 // indirect
	github.com/containerd/log v0.1.0 // indirect
	github.com/containerd/platforms v0.2.1 // indirect
	github.com/cpuguy83/dockercfg v0.3.2 // indirect
	github.com/davecgh/go-spew v1.1.1 // indirect
	github.com/distribution/reference v0.6.0 // indirect
	github.com/docker/docker v27.1.1+incompatible // indirect
	github.com/docker/go-connections v0.5.0 // indirect
	github.com/docker/go-units v0.5.0 // indirect
	github.com/felixge/httpsnoop v1.0.4 // indirect
	github.com/gabriel-vasile/mimetype v1.4.7 // indirect
	github.com/gin-contrib/sse v0.1.0 // indirect
	github.com/go-logr/logr v1.4.1 // indirect
	github.com/go-logr/stdr v1.2.2 // indirect
	github.com/go-ole/go-ole v1.2.6 // indirect
	github.com/go-playground/locales v0.14.1 // indirect
	github.com/go-playground/universal-translator v0.18.1 // indirect
	github.com/go-playground/validator/v10 v10.23.0 // indirect
	github.com/goccy/go-json v0.10.3 // indirect
	github.com/gogo/protobuf v1.3.2 // indirect
	github.com/google/uuid v1.6.0 // indirect
	github.com/jackc/pgpassfile v1.0.0 // indirect
	github.com/jackc/pgservicefile v0.0.0-20240606120523-5a60cdf6a761 // indirect
	github.com/jackc/puddle/v2 v2.2.2 // indirect
	github.com/jinzhu/inflection v1.0.0 // indirect
	github.com/jinzhu/now v1.1.5 // indirect
	github.com/json-iterator/go v1.1.12 // indirect
	github.com/klauspost/compress v1.17.4 // indirect
	github.com/klauspost/cpuid/v2 v2.2.9 // indirect
	github.com/leodido/go-urn v1.4.0 // indirect
	github.com/lufia/plan9stats v0.0.0-20211012122336-39d0f177ccd0 // indirect
	github.com/magiconair/properties v1.8.7 // indirect
	github.com/mattn/go-isatty v0.0.20 // indirect
	github.com/moby/docker-image-spec v1.3.1 // indirect
	github.com/moby/patternmatcher v0.6.0 // indirect
	github.com/moby/sys/sequential v0.5.0 // indirect
	github.com/moby/sys/user v0.1.0 // indirect
	github.com/moby/term v0.5.0 // indirect
	github.com/modern-go/concurrent v0.0.0-20180306012644-bacd9c7ef1dd // indirect
	github.com/modern-go/reflect2 v1.0.2 // indirect
	github.com/morikuni/aec v1.0.0 // indirect
	github.com/opencontainers/go-digest v1.0.0 // indirect
	github.com/opencontainers/image-spec v1.1.0 // indirect
	github.com/pelletier/go-toml/v2 v2.2.3 // indirect
	github.com/pkg/errors v0.9.1 // indirect
	github.com/pmezard/go-difflib v1.0.0 // indirect
	github.com/power-devops/perfstat v0.0.0-20210106213030-5aafc221ea8c // indirect
	github.com/shirou/gopsutil/v3 v3.23.12 // indirect
	github.com/shoenig/go-m1cpu v0.1.6 // indirect
	github.com/sirupsen/logrus v1.9.3 // indirect
	github.com/stretchr/testify v1.9.0 // indirect
	github.com/studio-b12/gowebdav v0.9.0 // indirect
	github.com/tklauser/go-sysconf v0.3.12 // indirect
	github.com/tklauser/numcpus v0.6.1 // indirect
	github.com/twitchyliquid64/golang-asm v0.15.1 // indirect
	github.com/ugorji/go/codec v1.2.12 // indirect
	github.com/yusufpapurcu/wmi v1.2.3 // indirect
	go.opentelemetry.io/contrib/instrumentation/net/http/otelhttp v0.49.0 // indirect
	go.opentelemetry.io/otel v1.24.0 // indirect
	go.opentelemetry.io/otel/metric v1.24.0 // indirect
	go.opentelemetry.io/otel/trace v1.24.0 // indirect
	golang.org/x/arch v0.12.0 // indirect
	golang.org/x/crypto v0.29.0 // indirect
	golang.org/x/net v0.31.0 // indirect
	golang.org/x/sync v0.10.0 // indirect
	golang.org/x/sys v0.27.0 // indirect
	golang.org/x/text v0.21.0 // indirect
	google.golang.org/protobuf v1.35.2 // indirect
	gopkg.in/yaml.v3 v3.0.1 // indirect
)
